{
    "start_date": {
        "year":			"2014",
        "month":		"10",
        "day": 			"20",
        "hour": 		"6",
        "minute": 		"45",
        "second": 		"56",
        "millisecond": 	"",
        "format": 		""
    },
    "media": {
        "caption": "Twain caricatured by Spy for Vanity Fair, 1908",
        "credit": "Vanity Fair",
        "url": "http://s1.ibtimes.com/sites/www.ibtimes.com/files/styles/v2_article_large/public/2014/10/23/canada.jpg?itok=49Gv9mDR"
    },
    "text": {
        "headline": "ISIS in Canada",
        "text": "An ISIS supporter in Quebec drives into two Canadian soldiers, killing one. Two days later, another ISIS supporter fatally shoots a soldier, then attacks Canada's Parliament building in Ottawa"
    },
    "unique_id": ""
},
{
    "start_date": {
        "year":			"2014",
        "month":		"10",
        "day": 			"31",
        "hour": 		"6",
        "minute": 		"45",
        "second": 		"56",
        "millisecond": 	"",
        "format": 		""
    },
    "text": {
        "headline": "Kurdish Militia Join Fight In Kobani",
        "text": "Iraqi Kurdish militia enter Kobani to help Syrian Kurdish fighters battling ISIS"
    },
    "unique_id": ""
},
{
    "start_date": {
        "year":			"2014",
        "month":		"11",
        "day": 			"10",
        "hour": 		"6",
        "minute": 		"45",
        "second": 		"56",
        "millisecond": 	"",
        "format": 		""
    },
    "media": {
        "caption": null,
        "credit": null,
        "url": "http://s1.ibtimes.com/sites/www.ibtimes.com/files/styles/v2_article_large/public/2014/11/13/egypt.jpg?itok=svWNBsFN"
    },
    "text": {
        "headline": "Ansar Bayt al-Maqdis Pledges Allegiance",
        "text": "Sinai-based militant group Ansar Bayt al-Maqdis pledges allegiance to ISIS. It later becomes the first ISIS province outside of Iraq and Syria"
    },
    "unique_id": ""
},
{
    "start_date": {
        "year":			"2015",
        "month":		"01",
        "day": 			"26",
        "hour": 		"6",
        "minute": 		"45",
        "second": 		"56",
        "millisecond": 	"",
        "format": 		""
    },
    "text": {
        "headline": "Kobani is Liberated By Kurdish Forces",
        "text": "Kurdish forces liberate Kobani from ISIS after nearly four months of fighting in the Syrian border town"
    },
    "unique_id": ""
},
{
    "start_date": {
        "year":			"2015",
        "month":		"03",
        "day": 			"12",
        "hour": 		"6",
        "minute": 		"45",
        "second": 		"56",
        "millisecond": 	"",
        "format": 		""
    },
    "text": {
        "headline": "Boko Haram Pledges Allegiance To ISIS",
        "text": "ISIS accepts Nigeria-based Boko Haram's pledge of allegiance"
    },
    "unique_id": ""
},
{
    "start_date": {
        "year":			"2015",
        "month":		"03",
        "day": 			"15",
        "hour": 		"6",
        "minute": 		"45",
        "second": 		"56",
        "millisecond": 	"",
        "format": 		""
    },
    "text": {
        "headline": "Suicide Bombing in Yemen",
        "text": "At least four suicide bombers attack two Shiite mosques in Yemen, killing at least 142. ISIS affiliates claim responsibility"
    },
    "unique_id": ""
},
{
    "start_date": {
        "year":			"2015",
        "month":		"05",
        "day": 			"11",
        "hour": 		"6",
        "minute": 		"45",
        "second": 		"56",
        "millisecond": 	"",
        "format": 		""
    },
    "background": {
        "color": "#000000",
        "opacity": 50,
        "url": null
    },
    "text": {
        "headline": "Threat of Cyberattack",
        "text": "ISIS-affiliated Hackers threaten cyberattacks, \"electronic war\" on US and Europe"
    },
    "unique_id": ""
},
{
    "background": {
        "color": "#000000",
        "opacity": 50,
        "url": null
    },
    "start_date": {
        "year":			"2015",
        "month":		"05",
        "day": 			"15",
        "hour": 		"",
        "minute": 		"",
        "second": 		"",
        "millisecond": 	"",
        "format": 		""
    },
    "text": {
        "headline": "ISIS commander Abu Sayyaf Killed By US Special Forces",
        "text": "US Special Forces conduct an operation inside Syria and kill Tunisian ISIS commander Abu Sayyaf, reportedly in charge of oil and finances"
    },
    "unique_id": ""
}
