{
  "edges": [
    {
      "type": "edge",
      "id": "026ffe7269fa45e493acc00dfa68bda1",
      "properties": [
        {
          "sandboxStatus": "PRIVATE",
          "key": "",
          "name": "http://neo.io#visibilityJson",
          "streamingPropertyValue": false,
          "metadata": {
            "http://neo.io#visibilityJson": {
              "source": "",
              "workspaces": [
                "WORKSPACE_0effb0a426414bcc98991a7927b71f15"
              ]
            }
          },
          "value": {
            "source": "",
            "workspaces": [
              "WORKSPACE_0effb0a426414bcc98991a7927b71f15"
            ]
          }
        }
      ],
      "sandboxStatus": "PRIVATE",
      "visibilitySource": "",
      "label": "http://neo.io/minimal#rawHasEntity",
      "sourceVertexId": "972734e51fe94315aa09e77bf9ec942b",
      "destVertexId": "aed2e66dd9294416803fee1e0ac8609d"
    },
    {
      "type": "edge",
      "id": "5042df8ecf3d49b59d24b6cb061963d1",
      "properties": [
        {
          "sandboxStatus": "PUBLIC",
          "key": "",
          "name": "http://neo.io#conceptType",
          "streamingPropertyValue": false,
          "metadata": {

          },
          "value": "relationship"
        },
        {
          "sandboxStatus": "PUBLIC",
          "key": "",
          "name": "http://neo.io#createDate",
          "streamingPropertyValue": false,
          "metadata": {

          },
          "value": 1532165552655
        },
        {
          "sandboxStatus": "PUBLIC",
          "key": "",
          "name": "http://neo.io#createdBy",
          "streamingPropertyValue": false,
          "metadata": {

          },
          "value": "USER_65504ca0b9ff4798ad32349e3b887429"
        },
        {
          "sandboxStatus": "PUBLIC",
          "key": "",
          "name": "http://neo.io#justification",
          "streamingPropertyValue": false,
          "metadata": {

          },
          "value": {
            "justificationText": "Because I see it... the system did not pick it up, but I see it"
          }
        },
        {
          "sandboxStatus": "PUBLIC",
          "key": "",
          "name": "http://neo.io#modifiedBy",
          "streamingPropertyValue": false,
          "metadata": {

          },
          "value": "USER_65504ca0b9ff4798ad32349e3b887429"
        },
        {
          "sandboxStatus": "PUBLIC",
          "key": "",
          "name": "http://neo.io#modifiedDate",
          "streamingPropertyValue": false,
          "metadata": {

          },
          "value": 1532165552655
        },
        {
          "sandboxStatus": "PUBLIC",
          "key": "",
          "name": "http://neo.io#visibilityJson",
          "streamingPropertyValue": false,
          "metadata": {

          },
          "value": {
            "source": "",
            "workspaces": [
              "WORKSPACE_0effb0a426414bcc98991a7927b71f15"
            ]
          }
        }
      ],
      "sandboxStatus": "PRIVATE",
      "visibilitySource": "",
      "label": "http://neo.io/minimal#rawContainsImageOfEntity",
      "sourceVertexId": "ad693d84f7fc4138a5111d875d1ce351",
      "destVertexId": "3c3610865e2e4c3798e34a16682ee540"
    },
    {
      "type": "edge",
      "id": "569677d521224ef49798f2f35cdc4874",
      "properties": [
        {
          "sandboxStatus": "PUBLIC",
          "key": "",
          "name": "http://neo.io#conceptType",
          "streamingPropertyValue": false,
          "metadata": {

          },
          "value": "relationship"
        },
        {
          "sandboxStatus": "PUBLIC",
          "key": "",
          "name": "http://neo.io#createDate",
          "streamingPropertyValue": false,
          "metadata": {

          },
          "value": 1531389228961
        },
        {
          "sandboxStatus": "PUBLIC",
          "key": "",
          "name": "http://neo.io#createdBy",
          "streamingPropertyValue": false,
          "metadata": {

          },
          "value": "USER_65504ca0b9ff4798ad32349e3b887429"
        },
        {
          "sandboxStatus": "PUBLIC",
          "key": "",
          "name": "http://neo.io#justification",
          "streamingPropertyValue": false,
          "metadata": {

          },
          "value": {
            "justificationText": "Taken during a vacation"
          }
        },
        {
          "sandboxStatus": "PUBLIC",
          "key": "",
          "name": "http://neo.io#modifiedBy",
          "streamingPropertyValue": false,
          "metadata": {

          },
          "value": "USER_65504ca0b9ff4798ad32349e3b887429"
        },
        {
          "sandboxStatus": "PUBLIC",
          "key": "",
          "name": "http://neo.io#modifiedDate",
          "streamingPropertyValue": false,
          "metadata": {

          },
          "value": 1531389228961
        },
        {
          "sandboxStatus": "PUBLIC",
          "key": "",
          "name": "http://neo.io#visibilityJson",
          "streamingPropertyValue": false,
          "metadata": {

          },
          "value": {
            "source": "",
            "workspaces": [
              "WORKSPACE_0effb0a426414bcc98991a7927b71f15"
            ]
          }
        }
      ],
      "sandboxStatus": "PRIVATE",
      "visibilitySource": "",
      "label": "http://neo.io/minimal#entityHasImageRaw",
      "sourceVertexId": "3c735b2d5ebe466dbf6c3fdf5d309163",
      "destVertexId": "372ce655012742ae98e14d2ba71629ab"
    },
    {
      "type": "edge",
      "id": "6d02637314a84971b1e5f4be167defcb",
      "properties": [
        {
          "sandboxStatus": "PRIVATE",
          "key": "",
          "name": "http://neo.io#visibilityJson",
          "streamingPropertyValue": false,
          "metadata": {
            "http://neo.io#visibilityJson": {
              "source": "",
              "workspaces": [
                "WORKSPACE_0effb0a426414bcc98991a7927b71f15"
              ]
            }
          },
          "value": {
            "source": "",
            "workspaces": [
              "WORKSPACE_0effb0a426414bcc98991a7927b71f15"
            ]
          }
        }
      ],
      "sandboxStatus": "PRIVATE",
      "visibilitySource": "",
      "label": "http://neo.io/minimal#rawHasEntity",
      "sourceVertexId": "972734e51fe94315aa09e77bf9ec942b",
      "destVertexId": "79e8e75257844ed4854d7c1ba088458d"
    },
    {
      "type": "edge",
      "id": "972734e51fe94315aa09e77bf9ec942b-http://neo.io/minimal#rawHasEntity-CLAVIN-2991908",
      "properties": [
        {
          "sandboxStatus": "PRIVATE",
          "key": "io.neo.clavin.ClavinTermMentionFilter",
          "name": "http://neo.io#visibilityJson",
          "streamingPropertyValue": false,
          "metadata": {
            "http://neo.io#visibilityJson": {
              "source": "",
              "workspaces": [
                "WORKSPACE_0effb0a426414bcc98991a7927b71f15"
              ]
            }
          },
          "value": {
            "source": "",
            "workspaces": [
              "WORKSPACE_0effb0a426414bcc98991a7927b71f15"
            ]
          }
        }
      ],
      "sandboxStatus": "PRIVATE",
      "visibilitySource": "",
      "label": "http://neo.io/minimal#rawHasEntity",
      "sourceVertexId": "972734e51fe94315aa09e77bf9ec942b",
      "destVertexId": "CLAVIN-2991908"
    },
    {
      "type": "edge",
      "id": "972734e51fe94315aa09e77bf9ec942b-http://neo.io/minimal#rawHasEntity-CLAVIN-4074759",
      "properties": [
        {
          "sandboxStatus": "PRIVATE",
          "key": "io.neo.clavin.ClavinTermMentionFilter",
          "name": "http://neo.io#visibilityJson",
          "streamingPropertyValue": false,
          "metadata": {
            "http://neo.io#visibilityJson": {
              "source": "",
              "workspaces": [
                "WORKSPACE_0effb0a426414bcc98991a7927b71f15"
              ]
            }
          },
          "value": {
            "source": "",
            "workspaces": [
              "WORKSPACE_0effb0a426414bcc98991a7927b71f15"
            ]
          }
        }
      ],
      "sandboxStatus": "PRIVATE",
      "visibilitySource": "",
      "label": "http://neo.io/minimal#rawHasEntity",
      "sourceVertexId": "972734e51fe94315aa09e77bf9ec942b",
      "destVertexId": "CLAVIN-4074759"
    },
    {
      "type": "edge",
      "id": "972734e51fe94315aa09e77bf9ec942b-http://neo.io/minimal#rawHasEntity-CLAVIN-4395262",
      "properties": [
        {
          "sandboxStatus": "PRIVATE",
          "key": "io.neo.clavin.ClavinTermMentionFilter",
          "name": "http://neo.io#visibilityJson",
          "streamingPropertyValue": false,
          "metadata": {
            "http://neo.io#visibilityJson": {
              "source": "",
              "workspaces": [
                "WORKSPACE_0effb0a426414bcc98991a7927b71f15"
              ]
            }
          },
          "value": {
            "source": "",
            "workspaces": [
              "WORKSPACE_0effb0a426414bcc98991a7927b71f15"
            ]
          }
        }
      ],
      "sandboxStatus": "PRIVATE",
      "visibilitySource": "",
      "label": "http://neo.io/minimal#rawHasEntity",
      "sourceVertexId": "972734e51fe94315aa09e77bf9ec942b",
      "destVertexId": "CLAVIN-4395262"
    },
    {
      "type": "edge",
      "id": "972734e51fe94315aa09e77bf9ec942b-http://neo.io/minimal#rawHasEntity-CLAVIN-4688864",
      "properties": [
        {
          "sandboxStatus": "PRIVATE",
          "key": "io.neo.clavin.ClavinTermMentionFilter",
          "name": "http://neo.io#visibilityJson",
          "streamingPropertyValue": false,
          "metadata": {
            "http://neo.io#visibilityJson": {
              "source": "",
              "workspaces": [
                "WORKSPACE_0effb0a426414bcc98991a7927b71f15"
              ]
            }
          },
          "value": {
            "source": "",
            "workspaces": [
              "WORKSPACE_0effb0a426414bcc98991a7927b71f15"
            ]
          }
        }
      ],
      "sandboxStatus": "PRIVATE",
      "visibilitySource": "",
      "label": "http://neo.io/minimal#rawHasEntity",
      "sourceVertexId": "972734e51fe94315aa09e77bf9ec942b",
      "destVertexId": "CLAVIN-4688864"
    },
    {
      "type": "edge",
      "id": "972734e51fe94315aa09e77bf9ec942b-http://neo.io/minimal#rawHasEntity-CLAVIN-4739052",
      "properties": [
        {
          "sandboxStatus": "PRIVATE",
          "key": "io.neo.clavin.ClavinTermMentionFilter",
          "name": "http://neo.io#visibilityJson",
          "streamingPropertyValue": false,
          "metadata": {
            "http://neo.io#visibilityJson": {
              "source": "",
              "workspaces": [
                "WORKSPACE_0effb0a426414bcc98991a7927b71f15"
              ]
            }
          },
          "value": {
            "source": "",
            "workspaces": [
              "WORKSPACE_0effb0a426414bcc98991a7927b71f15"
            ]
          }
        }
      ],
      "sandboxStatus": "PRIVATE",
      "visibilitySource": "",
      "label": "http://neo.io/minimal#rawHasEntity",
      "sourceVertexId": "972734e51fe94315aa09e77bf9ec942b",
      "destVertexId": "CLAVIN-4739052"
    },
    {
      "type": "edge",
      "id": "972734e51fe94315aa09e77bf9ec942b-http://neo.io/minimal#rawHasEntity-CLAVIN-4942618",
      "properties": [
        {
          "sandboxStatus": "PRIVATE",
          "key": "io.neo.clavin.ClavinTermMentionFilter",
          "name": "http://neo.io#visibilityJson",
          "streamingPropertyValue": false,
          "metadata": {
            "http://neo.io#visibilityJson": {
              "source": "",
              "workspaces": [
                "WORKSPACE_0effb0a426414bcc98991a7927b71f15"
              ]
            }
          },
          "value": {
            "source": "",
            "workspaces": [
              "WORKSPACE_0effb0a426414bcc98991a7927b71f15"
            ]
          }
        }
      ],
      "sandboxStatus": "PRIVATE",
      "visibilitySource": "",
      "label": "http://neo.io/minimal#rawHasEntity",
      "sourceVertexId": "972734e51fe94315aa09e77bf9ec942b",
      "destVertexId": "CLAVIN-4942618"
    },
    {
      "type": "edge",
      "id": "972734e51fe94315aa09e77bf9ec942b-http://neo.io/minimal#rawHasEntity-CLAVIN-5199944",
      "properties": [
        {
          "sandboxStatus": "PRIVATE",
          "key": "io.neo.clavin.ClavinTermMentionFilter",
          "name": "http://neo.io#visibilityJson",
          "streamingPropertyValue": false,
          "metadata": {
            "http://neo.io#visibilityJson": {
              "source": "",
              "workspaces": [
                "WORKSPACE_0effb0a426414bcc98991a7927b71f15"
              ]
            }
          },
          "value": {
            "source": "",
            "workspaces": [
              "WORKSPACE_0effb0a426414bcc98991a7927b71f15"
            ]
          }
        }
      ],
      "sandboxStatus": "PRIVATE",
      "visibilitySource": "",
      "label": "http://neo.io/minimal#rawHasEntity",
      "sourceVertexId": "972734e51fe94315aa09e77bf9ec942b",
      "destVertexId": "CLAVIN-5199944"
    },
    {
      "type": "edge",
      "id": "972734e51fe94315aa09e77bf9ec942b-http://neo.io/minimal#rawHasEntity-CLAVIN-5342434",
      "properties": [
        {
          "sandboxStatus": "PRIVATE",
          "key": "io.neo.clavin.ClavinTermMentionFilter",
          "name": "http://neo.io#visibilityJson",
          "streamingPropertyValue": false,
          "metadata": {
            "http://neo.io#visibilityJson": {
              "source": "",
              "workspaces": [
                "WORKSPACE_0effb0a426414bcc98991a7927b71f15"
              ]
            }
          },
          "value": {
            "source": "",
            "workspaces": [
              "WORKSPACE_0effb0a426414bcc98991a7927b71f15"
            ]
          }
        }
      ],
      "sandboxStatus": "PRIVATE",
      "visibilitySource": "",
      "label": "http://neo.io/minimal#rawHasEntity",
      "sourceVertexId": "972734e51fe94315aa09e77bf9ec942b",
      "destVertexId": "CLAVIN-5342434"
    },
    {
      "type": "edge",
      "id": "972734e51fe94315aa09e77bf9ec942b-http://neo.io/minimal#rawHasEntity-CLAVIN-5466336",
      "properties": [
        {
          "sandboxStatus": "PRIVATE",
          "key": "io.neo.clavin.ClavinTermMentionFilter",
          "name": "http://neo.io#visibilityJson",
          "streamingPropertyValue": false,
          "metadata": {
            "http://neo.io#visibilityJson": {
              "source": "",
              "workspaces": [
                "WORKSPACE_0effb0a426414bcc98991a7927b71f15"
              ]
            }
          },
          "value": {
            "source": "",
            "workspaces": [
              "WORKSPACE_0effb0a426414bcc98991a7927b71f15"
            ]
          }
        }
      ],
      "sandboxStatus": "PRIVATE",
      "visibilitySource": "",
      "label": "http://neo.io/minimal#rawHasEntity",
      "sourceVertexId": "972734e51fe94315aa09e77bf9ec942b",
      "destVertexId": "CLAVIN-5466336"
    },
    {
      "type": "edge",
      "id": "972734e51fe94315aa09e77bf9ec942b-http://neo.io/minimal#rawHasEntity-CLAVIN-5470983",
      "properties": [
        {
          "sandboxStatus": "PRIVATE",
          "key": "io.neo.clavin.ClavinTermMentionFilter",
          "name": "http://neo.io#visibilityJson",
          "streamingPropertyValue": false,
          "metadata": {
            "http://neo.io#visibilityJson": {
              "source": "",
              "workspaces": [
                "WORKSPACE_0effb0a426414bcc98991a7927b71f15"
              ]
            }
          },
          "value": {
            "source": "",
            "workspaces": [
              "WORKSPACE_0effb0a426414bcc98991a7927b71f15"
            ]
          }
        }
      ],
      "sandboxStatus": "PRIVATE",
      "visibilitySource": "",
      "label": "http://neo.io/minimal#rawHasEntity",
      "sourceVertexId": "972734e51fe94315aa09e77bf9ec942b",
      "destVertexId": "CLAVIN-5470983"
    },
    {
      "type": "edge",
      "id": "972734e51fe94315aa09e77bf9ec942b-http://neo.io/minimal#rawHasEntity-CLAVIN-5520687",
      "properties": [
        {
          "sandboxStatus": "PRIVATE",
          "key": "io.neo.clavin.ClavinTermMentionFilter",
          "name": "http://neo.io#visibilityJson",
          "streamingPropertyValue": false,
          "metadata": {
            "http://neo.io#visibilityJson": {
              "source": "",
              "workspaces": [
                "WORKSPACE_0effb0a426414bcc98991a7927b71f15"
              ]
            }
          },
          "value": {
            "source": "",
            "workspaces": [
              "WORKSPACE_0effb0a426414bcc98991a7927b71f15"
            ]
          }
        }
      ],
      "sandboxStatus": "PRIVATE",
      "visibilitySource": "",
      "label": "http://neo.io/minimal#rawHasEntity",
      "sourceVertexId": "972734e51fe94315aa09e77bf9ec942b",
      "destVertexId": "CLAVIN-5520687"
    },
    {
      "type": "edge",
      "id": "972734e51fe94315aa09e77bf9ec942b-http://neo.io/minimal#rawHasEntity-CLAVIN-5594956",
      "properties": [
        {
          "sandboxStatus": "PRIVATE",
          "key": "io.neo.clavin.ClavinTermMentionFilter",
          "name": "http://neo.io#visibilityJson",
          "streamingPropertyValue": false,
          "metadata": {
            "http://neo.io#visibilityJson": {
              "source": "",
              "workspaces": [
                "WORKSPACE_0effb0a426414bcc98991a7927b71f15"
              ]
            }
          },
          "value": {
            "source": "",
            "workspaces": [
              "WORKSPACE_0effb0a426414bcc98991a7927b71f15"
            ]
          }
        }
      ],
      "sandboxStatus": "PRIVATE",
      "visibilitySource": "",
      "label": "http://neo.io/minimal#rawHasEntity",
      "sourceVertexId": "972734e51fe94315aa09e77bf9ec942b",
      "destVertexId": "CLAVIN-5594956"
    },
    {
      "type": "edge",
      "id": "972734e51fe94315aa09e77bf9ec942b-http://neo.io/minimal#rawHasEntity-CLAVIN-5637854",
      "properties": [
        {
          "sandboxStatus": "PRIVATE",
          "key": "io.neo.clavin.ClavinTermMentionFilter",
          "name": "http://neo.io#visibilityJson",
          "streamingPropertyValue": false,
          "metadata": {
            "http://neo.io#visibilityJson": {
              "source": "",
              "workspaces": [
                "WORKSPACE_0effb0a426414bcc98991a7927b71f15"
              ]
            }
          },
          "value": {
            "source": "",
            "workspaces": [
              "WORKSPACE_0effb0a426414bcc98991a7927b71f15"
            ]
          }
        }
      ],
      "sandboxStatus": "PRIVATE",
      "visibilitySource": "",
      "label": "http://neo.io/minimal#rawHasEntity",
      "sourceVertexId": "972734e51fe94315aa09e77bf9ec942b",
      "destVertexId": "CLAVIN-5637854"
    },
    {
      "type": "edge",
      "id": "972734e51fe94315aa09e77bf9ec942b-http://neo.io/minimal#rawHasEntity-CLAVIN-5972941",
      "properties": [
        {
          "sandboxStatus": "PRIVATE",
          "key": "io.neo.clavin.ClavinTermMentionFilter",
          "name": "http://neo.io#visibilityJson",
          "streamingPropertyValue": false,
          "metadata": {
            "http://neo.io#visibilityJson": {
              "source": "",
              "workspaces": [
                "WORKSPACE_0effb0a426414bcc98991a7927b71f15"
              ]
            }
          },
          "value": {
            "source": "",
            "workspaces": [
              "WORKSPACE_0effb0a426414bcc98991a7927b71f15"
            ]
          }
        }
      ],
      "sandboxStatus": "PRIVATE",
      "visibilitySource": "",
      "label": "http://neo.io/minimal#rawHasEntity",
      "sourceVertexId": "972734e51fe94315aa09e77bf9ec942b",
      "destVertexId": "CLAVIN-5972941"
    },
    {
      "type": "edge",
      "id": "972734e51fe94315aa09e77bf9ec942b-http://neo.io/minimal#rawHasEntity-CLAVIN-6254927",
      "properties": [
        {
          "sandboxStatus": "PRIVATE",
          "key": "io.neo.clavin.ClavinTermMentionFilter",
          "name": "http://neo.io#visibilityJson",
          "streamingPropertyValue": false,
          "metadata": {
            "http://neo.io#visibilityJson": {
              "source": "",
              "workspaces": [
                "WORKSPACE_0effb0a426414bcc98991a7927b71f15"
              ]
            }
          },
          "value": {
            "source": "",
            "workspaces": [
              "WORKSPACE_0effb0a426414bcc98991a7927b71f15"
            ]
          }
        }
      ],
      "sandboxStatus": "PRIVATE",
      "visibilitySource": "",
      "label": "http://neo.io/minimal#rawHasEntity",
      "sourceVertexId": "972734e51fe94315aa09e77bf9ec942b",
      "destVertexId": "CLAVIN-6254927"
    },
    {
      "type": "edge",
      "id": "972734e51fe94315aa09e77bf9ec942b-http://neo.io/minimal#rawHasEntity-CLAVIN-6482535",
      "properties": [
        {
          "sandboxStatus": "PRIVATE",
          "key": "io.neo.clavin.ClavinTermMentionFilter",
          "name": "http://neo.io#visibilityJson",
          "streamingPropertyValue": false,
          "metadata": {
            "http://neo.io#visibilityJson": {
              "source": "",
              "workspaces": [
                "WORKSPACE_0effb0a426414bcc98991a7927b71f15"
              ]
            }
          },
          "value": {
            "source": "",
            "workspaces": [
              "WORKSPACE_0effb0a426414bcc98991a7927b71f15"
            ]
          }
        }
      ],
      "sandboxStatus": "PRIVATE",
      "visibilitySource": "",
      "label": "http://neo.io/minimal#rawHasEntity",
      "sourceVertexId": "972734e51fe94315aa09e77bf9ec942b",
      "destVertexId": "CLAVIN-6482535"
    },
    {
      "type": "edge",
      "id": "972734e51fe94315aa09e77bf9ec942b-http://neo.io/minimal#rawHasEntity-CLAVIN-9091908",
      "properties": [
        {
          "sandboxStatus": "PRIVATE",
          "key": "io.neo.clavin.ClavinTermMentionFilter",
          "name": "http://neo.io#visibilityJson",
          "streamingPropertyValue": false,
          "metadata": {
            "http://neo.io#visibilityJson": {
              "source": "",
              "workspaces": [
                "WORKSPACE_0effb0a426414bcc98991a7927b71f15"
              ]
            }
          },
          "value": {
            "source": "",
            "workspaces": [
              "WORKSPACE_0effb0a426414bcc98991a7927b71f15"
            ]
          }
        }
      ],
      "sandboxStatus": "PRIVATE",
      "visibilitySource": "",
      "label": "http://neo.io/minimal#rawHasEntity",
      "sourceVertexId": "972734e51fe94315aa09e77bf9ec942b",
      "destVertexId": "CLAVIN-9091908"
    },
    {
      "type": "edge",
      "id": "972734e51fe94315aa09e77bf9ec942b-http://neo.io/minimal#rawHasEntity-GEO-ZIPCODE-04635",
      "properties": [
        {
          "sandboxStatus": "PRIVATE",
          "key": "io.neo.zipCodeResolver.ZipCodeResolverTermMentionFilter",
          "name": "http://neo.io#visibilityJson",
          "streamingPropertyValue": false,
          "metadata": {
            "http://neo.io#visibilityJson": {
              "source": "",
              "workspaces": [
                "WORKSPACE_0effb0a426414bcc98991a7927b71f15"
              ]
            }
          },
          "value": {
            "source": "",
            "workspaces": [
              "WORKSPACE_0effb0a426414bcc98991a7927b71f15"
            ]
          }
        }
      ],
      "sandboxStatus": "PRIVATE",
      "visibilitySource": "",
      "label": "http://neo.io/minimal#rawHasEntity",
      "sourceVertexId": "972734e51fe94315aa09e77bf9ec942b",
      "destVertexId": "GEO-ZIPCODE-04635"
    },
    {
      "type": "edge",
      "id": "972734e51fe94315aa09e77bf9ec942b-http://neo.io/minimal#rawHasEntity-GEO-ZIPCODE-06096",
      "properties": [
        {
          "sandboxStatus": "PRIVATE",
          "key": "io.neo.zipCodeResolver.ZipCodeResolverTermMentionFilter",
          "name": "http://neo.io#visibilityJson",
          "streamingPropertyValue": false,
          "metadata": {
            "http://neo.io#visibilityJson": {
              "source": "",
              "workspaces": [
                "WORKSPACE_0effb0a426414bcc98991a7927b71f15"
              ]
            }
          },
          "value": {
            "source": "",
            "workspaces": [
              "WORKSPACE_0effb0a426414bcc98991a7927b71f15"
            ]
          }
        }
      ],
      "sandboxStatus": "PRIVATE",
      "visibilitySource": "",
      "label": "http://neo.io/minimal#rawHasEntity",
      "sourceVertexId": "972734e51fe94315aa09e77bf9ec942b",
      "destVertexId": "GEO-ZIPCODE-06096"
    },
    {
      "type": "edge",
      "id": "972734e51fe94315aa09e77bf9ec942b-http://neo.io/minimal#rawHasEntity-GEO-ZIPCODE-16802",
      "properties": [
        {
          "sandboxStatus": "PRIVATE",
          "key": "io.neo.zipCodeResolver.ZipCodeResolverTermMentionFilter",
          "name": "http://neo.io#visibilityJson",
          "streamingPropertyValue": false,
          "metadata": {
            "http://neo.io#visibilityJson": {
              "source": "",
              "workspaces": [
                "WORKSPACE_0effb0a426414bcc98991a7927b71f15"
              ]
            }
          },
          "value": {
            "source": "",
            "workspaces": [
              "WORKSPACE_0effb0a426414bcc98991a7927b71f15"
            ]
          }
        }
      ],
      "sandboxStatus": "PRIVATE",
      "visibilitySource": "",
      "label": "http://neo.io/minimal#rawHasEntity",
      "sourceVertexId": "972734e51fe94315aa09e77bf9ec942b",
      "destVertexId": "GEO-ZIPCODE-16802"
    },
    {
      "type": "edge",
      "id": "972734e51fe94315aa09e77bf9ec942b-http://neo.io/minimal#rawHasEntity-GEO-ZIPCODE-17061",
      "properties": [
        {
          "sandboxStatus": "PRIVATE",
          "key": "io.neo.zipCodeResolver.ZipCodeResolverTermMentionFilter",
          "name": "http://neo.io#visibilityJson",
          "streamingPropertyValue": false,
          "metadata": {
            "http://neo.io#visibilityJson": {
              "source": "",
              "workspaces": [
                "WORKSPACE_0effb0a426414bcc98991a7927b71f15"
              ]
            }
          },
          "value": {
            "source": "",
            "workspaces": [
              "WORKSPACE_0effb0a426414bcc98991a7927b71f15"
            ]
          }
        }
      ],
      "sandboxStatus": "PRIVATE",
      "visibilitySource": "",
      "label": "http://neo.io/minimal#rawHasEntity",
      "sourceVertexId": "972734e51fe94315aa09e77bf9ec942b",
      "destVertexId": "GEO-ZIPCODE-17061"
    },
    {
      "type": "edge",
      "id": "972734e51fe94315aa09e77bf9ec942b-http://neo.io/minimal#rawHasEntity-GEO-ZIPCODE-17068",
      "properties": [
        {
          "sandboxStatus": "PRIVATE",
          "key": "io.neo.zipCodeResolver.ZipCodeResolverTermMentionFilter",
          "name": "http://neo.io#visibilityJson",
          "streamingPropertyValue": false,
          "metadata": {
            "http://neo.io#visibilityJson": {
              "source": "",
              "workspaces": [
                "WORKSPACE_0effb0a426414bcc98991a7927b71f15"
              ]
            }
          },
          "value": {
            "source": "",
            "workspaces": [
              "WORKSPACE_0effb0a426414bcc98991a7927b71f15"
            ]
          }
        }
      ],
      "sandboxStatus": "PRIVATE",
      "visibilitySource": "",
      "label": "http://neo.io/minimal#rawHasEntity",
      "sourceVertexId": "972734e51fe94315aa09e77bf9ec942b",
      "destVertexId": "GEO-ZIPCODE-17068"
    },
    {
      "type": "edge",
      "id": "972734e51fe94315aa09e77bf9ec942b-http://neo.io/minimal#rawHasEntity-GEO-ZIPCODE-90086",
      "properties": [
        {
          "sandboxStatus": "PRIVATE",
          "key": "io.neo.zipCodeResolver.ZipCodeResolverTermMentionFilter",
          "name": "http://neo.io#visibilityJson",
          "streamingPropertyValue": false,
          "metadata": {
            "http://neo.io#visibilityJson": {
              "source": "",
              "workspaces": [
                "WORKSPACE_0effb0a426414bcc98991a7927b71f15"
              ]
            }
          },
          "value": {
            "source": "",
            "workspaces": [
              "WORKSPACE_0effb0a426414bcc98991a7927b71f15"
            ]
          }
        }
      ],
      "sandboxStatus": "PRIVATE",
      "visibilitySource": "",
      "label": "http://neo.io/minimal#rawHasEntity",
      "sourceVertexId": "972734e51fe94315aa09e77bf9ec942b",
      "destVertexId": "GEO-ZIPCODE-90086"
    },
    {
      "type": "edge",
      "id": "972734e51fe94315aa09e77bf9ec942b-http://neo.io/minimal#rawHasEntity-GEO-ZIPCODE-94720",
      "properties": [
        {
          "sandboxStatus": "PRIVATE",
          "key": "io.neo.zipCodeResolver.ZipCodeResolverTermMentionFilter",
          "name": "http://neo.io#visibilityJson",
          "streamingPropertyValue": false,
          "metadata": {
            "http://neo.io#visibilityJson": {
              "source": "",
              "workspaces": [
                "WORKSPACE_0effb0a426414bcc98991a7927b71f15"
              ]
            }
          },
          "value": {
            "source": "",
            "workspaces": [
              "WORKSPACE_0effb0a426414bcc98991a7927b71f15"
            ]
          }
        }
      ],
      "sandboxStatus": "PRIVATE",
      "visibilitySource": "",
      "label": "http://neo.io/minimal#rawHasEntity",
      "sourceVertexId": "972734e51fe94315aa09e77bf9ec942b",
      "destVertexId": "GEO-ZIPCODE-94720"
    },
    {
      "type": "edge",
      "id": "c1a64c0b47744df29e8a882fcd295001",
      "properties": [
        {
          "sandboxStatus": "PRIVATE",
          "key": "",
          "name": "http://neo.io#visibilityJson",
          "streamingPropertyValue": false,
          "metadata": {
            "http://neo.io#visibilityJson": {
              "source": "",
              "workspaces": [
                "WORKSPACE_0effb0a426414bcc98991a7927b71f15"
              ]
            }
          },
          "value": {
            "source": "",
            "workspaces": [
              "WORKSPACE_0effb0a426414bcc98991a7927b71f15"
            ]
          }
        }
      ],
      "sandboxStatus": "PRIVATE",
      "visibilitySource": "",
      "label": "http://neo.io/minimal#rawHasEntity",
      "sourceVertexId": "972734e51fe94315aa09e77bf9ec942b",
      "destVertexId": "f7c2d1738a2e4f97be03833c811f1cf0"
    },
    {
      "type": "edge",
      "id": "d2a93447c90b4cd6a77943bae76ab21e",
      "properties": [
        {
          "sandboxStatus": "PRIVATE",
          "key": "",
          "name": "http://neo.io#visibilityJson",
          "streamingPropertyValue": false,
          "metadata": {
            "http://neo.io#visibilityJson": {
              "source": "",
              "workspaces": [
                "WORKSPACE_0effb0a426414bcc98991a7927b71f15"
              ]
            }
          },
          "value": {
            "source": "",
            "workspaces": [
              "WORKSPACE_0effb0a426414bcc98991a7927b71f15"
            ]
          }
        }
      ],
      "sandboxStatus": "PRIVATE",
      "visibilitySource": "",
      "label": "http://neo.io/minimal#rawContainsImageOfEntity",
      "sourceVertexId": "a55e00c31d044d1ab1ab223641de633a",
      "destVertexId": "7bb3023e28d04066b729698f297f958f"
    },
    {
      "type": "edge",
      "id": "f2d966818dca4f55a30112c4c7629dac",
      "properties": [
        {
          "sandboxStatus": "PUBLIC",
          "key": "",
          "name": "http://neo.io#conceptType",
          "streamingPropertyValue": false,
          "metadata": {

          },
          "value": "relationship"
        },
        {
          "sandboxStatus": "PUBLIC",
          "key": "",
          "name": "http://neo.io#createDate",
          "streamingPropertyValue": false,
          "metadata": {

          },
          "value": 1531381414171
        },
        {
          "sandboxStatus": "PUBLIC",
          "key": "",
          "name": "http://neo.io#createdBy",
          "streamingPropertyValue": false,
          "metadata": {

          },
          "value": "USER_65504ca0b9ff4798ad32349e3b887429"
        },
        {
          "sandboxStatus": "PUBLIC",
          "key": "",
          "name": "http://neo.io#justification",
          "streamingPropertyValue": false,
          "metadata": {

          },
          "value": {
            "justificationText": "Works at BRO"
          }
        },
        {
          "sandboxStatus": "PUBLIC",
          "key": "",
          "name": "http://neo.io#modifiedBy",
          "streamingPropertyValue": false,
          "metadata": {

          },
          "value": "USER_65504ca0b9ff4798ad32349e3b887429"
        },
        {
          "sandboxStatus": "PUBLIC",
          "key": "",
          "name": "http://neo.io#modifiedDate",
          "streamingPropertyValue": false,
          "metadata": {

          },
          "value": 1531381414171
        },
        {
          "sandboxStatus": "PUBLIC",
          "key": "",
          "name": "http://neo.io#visibilityJson",
          "streamingPropertyValue": false,
          "metadata": {

          },
          "value": {
            "source": "",
            "workspaces": [
              "WORKSPACE_0effb0a426414bcc98991a7927b71f15"
            ]
          }
        }
      ],
      "sandboxStatus": "PRIVATE",
      "visibilitySource": "",
      "label": "http://neo.io/minimal#entityHasImageRaw",
      "sourceVertexId": "3c735b2d5ebe466dbf6c3fdf5d309163",
      "destVertexId": "a55e00c31d044d1ab1ab223641de633a"
    },
    {
      "type": "edge",
      "id": "f9196895ebf94a6287a76da8c75439bb",
      "properties": [
        {
          "sandboxStatus": "PRIVATE",
          "key": "",
          "name": "http://neo.io#visibilityJson",
          "streamingPropertyValue": false,
          "metadata": {
            "http://neo.io#visibilityJson": {
              "source": "",
              "workspaces": [
                "WORKSPACE_0effb0a426414bcc98991a7927b71f15"
              ]
            }
          },
          "value": {
            "source": "",
            "workspaces": [
              "WORKSPACE_0effb0a426414bcc98991a7927b71f15"
            ]
          }
        }
      ],
      "sandboxStatus": "PRIVATE",
      "visibilitySource": "",
      "label": "http://neo.io/minimal#rawContainsImageOfEntity",
      "sourceVertexId": "35b43a1881464121ad025577ede2df32",
      "destVertexId": "3c3610865e2e4c3798e34a16682ee540"
    }
  ]
}
