{
   "id":"USER_e348173fdfbb4a78bbc6c3dd9645f784",
   "userName":"adityakhanna",
   "displayName":"adityakhanna",
   "userType":"USER",
   "currentWorkspaceId":"WORKSPACE_38ecfab7b0c54c2ab06022585120e092",
   "status":"ACTIVE",
   "csrfToken":"ev4c8mhbrnleub0mhoba9vst",
   "privileges":[
      "ADMIN",
      "COMMENT",
      "READ",
      "EDIT",
      "PUBLISH"
   ],
   "uiPreferences":{
      "termsOfUse":{
         "date":"Sat Nov 10 00:38:15 IST 2018",
         "hash":"fa376aff6f2933112bd4fe8651f0c00b"
      }
   },
   "authorizations":[

   ],
   "longRunningProcesses":[

   ],
   "workspaces":[

   ]
}
