{
  "workspaceId": "WORKSPACE_0effb0a426414bcc98991a7927b71f15",
  "title": "Default - aditya",
  "createdBy": "USER_65504ca0b9ff4798ad32349e3b887429",
  "users": [
    {
      "userId": "USER_65504ca0b9ff4798ad32349e3b887429",
      "access": "WRITE"
    }
  ],
  "vertices": [
    {
      "vertexId": "ad693d84f7fc4138a5111d875d1ce351",
      "graphPosition": {
        "x": 1407,
        "y": -116
      }
    },
    {
      "vertexId": "GEO-ZIPCODE-94720",
      "graphPosition": {
        "x": 1183,
        "y": 341
      }
    },
    {
      "vertexId": "CLAVIN-4688864",
      "graphPosition": {
        "x": 663,
        "y": 300
      }
    },
    {
      "vertexId": "CLAVIN-5594956",
      "graphPosition": {
        "x": 702,
        "y": 123
      }
    },
    {
      "vertexId": "CLAVIN-5470983",
      "graphPosition": {
        "x": 1018,
        "y": 399
      }
    },
    {
      "vertexId": "3c3610865e2e4c3798e34a16682ee540",
      "graphPosition": {
        "x": 1394,
        "y": 57
      }
    },
    {
      "vertexId": "CLAVIN-4739052",
      "graphPosition": {
        "x": 1025,
        "y": 42
      }
    },
    {
      "vertexId": "372ce655012742ae98e14d2ba71629ab",
      "graphPosition": {
        "x": 800,
        "y": 576
      }
    },
    {
      "vertexId": "35b43a1881464121ad025577ede2df32",
      "graphPosition": {
        "x": 1549,
        "y": 119
      }
    },
    {
      "vertexId": "CLAVIN-5520687",
      "graphPosition": {
        "x": 1195,
        "y": 119
      }
    },
    {
      "vertexId": "a55e00c31d044d1ab1ab223641de633a",
      "graphPosition": {
        "x": 398,
        "y": 389
      }
    },
    {
      "vertexId": "972734e51fe94315aa09e77bf9ec942b",
      "graphPosition": {
        "x": 950,
        "y": 230
      }
    },
    {
      "vertexId": "CLAVIN-4395262",
      "graphPosition": {
        "x": 877,
        "y": 50
      }
    },
    {
      "vertexId": "CLAVIN-5637854",
      "graphPosition": {
        "x": 1165,
        "y": 234
      }
    },
    {
      "vertexId": "CLAVIN-5466336",
      "graphPosition": {
        "x": 783,
        "y": 222
      }
    },
    {
      "vertexId": "3c735b2d5ebe466dbf6c3fdf5d309163",
      "graphPosition": {
        "x": 547,
        "y": 509
      }
    },
    {
      "vertexId": "CLAVIN-5342434",
      "graphPosition": {
        "x": 846,
        "y": 364
      }
    },
    {
      "vertexId": "0b30571c880d49dc9f1a20d89ead0fa5",
      "graphPosition": {
        "x": 1216,
        "y": -37
      }
    }
  ],
  "active": false,
  "sharedToUser": false,
  "editable": true,
  "commentable": true
}
